é
é
é
é
é
é
á
á
á
á
á
í
í
í
í
í
ó
ó
ó
ó
ó
ñ
ñ
ñ
ñ
ñ
ñ
e
e
e
e
e
e
e
e
e
e
e
e
e
e
a
a
a
a
a
a
a
a
a
a
a
i
i
i
i
i
i
i
i
i
i
i
o
o
o
o
o
o
o
o
o
n
n
n
n
n
n
n
n
r
r
r
r
r
r
r
r
t
t
t
t
t
t
t
t
d
d
d
d
d
d
l
l
l
l
l
l
s
s
s
s
s
s
u
u
u
u
u
u
g
g
g
g
g
b
b
b
b
c
c
c
c
f
f
f
f
h
h
h
h
j
j
j
j
k
k
k
k
m
m
m
m
p
p
p
p
v
v
v
v
w
w
w
w
y
y
y
y
x
x
x
q
q
z
